(kicad_sch (version 20211123) (generator eeschema)

  (uuid 0c27de14-97c6-442d-a19e-1397e1777702)

  (paper "A4")

  (lib_symbols
    (symbol "Connector_Generic:Conn_01x02" (pin_names (offset 1.016) hide) (in_bom yes) (on_board yes)
      (property "Reference" "J" (id 0) (at 0 2.54 0)
        (effects (font (size 1.27 1.27)))
      )
      (property "Value" "Conn_01x02" (id 1) (at 0 -5.08 0)
        (effects (font (size 1.27 1.27)))
      )
      (property "Footprint" "" (id 2) (at 0 0 0)
        (effects (font (size 1.27 1.27)) hide)
      )
      (property "Datasheet" "~" (id 3) (at 0 0 0)
        (effects (font (size 1.27 1.27)) hide)
      )
      (property "ki_keywords" "connector" (id 4) (at 0 0 0)
        (effects (font (size 1.27 1.27)) hide)
      )
      (property "ki_description" "Generic connector, single row, 01x02, script generated (kicad-library-utils/schlib/autogen/connector/)" (id 5) (at 0 0 0)
        (effects (font (size 1.27 1.27)) hide)
      )
      (property "ki_fp_filters" "Connector*:*_1x??_*" (id 6) (at 0 0 0)
        (effects (font (size 1.27 1.27)) hide)
      )
      (symbol "Conn_01x02_1_1"
        (rectangle (start -1.27 -2.413) (end 0 -2.667)
          (stroke (width 0.1524) (type default) (color 0 0 0 0))
          (fill (type none))
        )
        (rectangle (start -1.27 0.127) (end 0 -0.127)
          (stroke (width 0.1524) (type default) (color 0 0 0 0))
          (fill (type none))
        )
        (rectangle (start -1.27 1.27) (end 1.27 -3.81)
          (stroke (width 0.254) (type default) (color 0 0 0 0))
          (fill (type background))
        )
        (pin passive line (at -5.08 0 0) (length 3.81)
          (name "Pin_1" (effects (font (size 1.27 1.27))))
          (number "1" (effects (font (size 1.27 1.27))))
        )
        (pin passive line (at -5.08 -2.54 0) (length 3.81)
          (name "Pin_2" (effects (font (size 1.27 1.27))))
          (number "2" (effects (font (size 1.27 1.27))))
        )
      )
    )
    (symbol "DW01x:DW01x-LION_Baterry_Management" (pin_names (offset 1.016)) (in_bom yes) (on_board yes)
      (property "Reference" "U" (id 0) (at 5.08 0 0)
        (effects (font (size 1.27 1.27)))
      )
      (property "Value" "DW01x-LION_Baterry_Management" (id 1) (at 0 0 0)
        (effects (font (size 1.27 1.27)))
      )
      (property "Footprint" "Package_TO_SOT_SMD:SOT-23-6" (id 2) (at 0 0 0)
        (effects (font (size 1.27 1.27)) hide)
      )
      (property "Datasheet" "" (id 3) (at 0 0 0)
        (effects (font (size 1.27 1.27)) hide)
      )
      (symbol "DW01x-LION_Baterry_Management_0_1"
        (rectangle (start 3.81 6.35) (end -3.81 -5.08)
          (stroke (width 0) (type default) (color 0 0 0 0))
          (fill (type none))
        )
      )
      (symbol "DW01x-LION_Baterry_Management_1_1"
        (pin output line (at -2.54 -7.62 90) (length 2.54)
          (name "OD" (effects (font (size 1.27 1.27))))
          (number "1" (effects (font (size 1.27 1.27))))
        )
        (pin input line (at 0 -7.62 90) (length 2.54)
          (name "CS" (effects (font (size 1.27 1.27))))
          (number "2" (effects (font (size 1.27 1.27))))
        )
        (pin output line (at 2.54 -7.62 90) (length 2.54)
          (name "OC" (effects (font (size 1.27 1.27))))
          (number "3" (effects (font (size 1.27 1.27))))
        )
        (pin input line (at 2.54 8.89 270) (length 2.54)
          (name "TD" (effects (font (size 1.27 1.27))))
          (number "4" (effects (font (size 1.27 1.27))))
        )
        (pin input line (at 0 8.89 270) (length 2.54)
          (name "VCC" (effects (font (size 1.27 1.27))))
          (number "5" (effects (font (size 1.27 1.27))))
        )
        (pin input line (at -2.54 8.89 270) (length 2.54)
          (name "GND" (effects (font (size 1.27 1.27))))
          (number "6" (effects (font (size 1.27 1.27))))
        )
      )
    )
    (symbol "Device:C" (pin_numbers hide) (pin_names (offset 0.254)) (in_bom yes) (on_board yes)
      (property "Reference" "C" (id 0) (at 0.635 2.54 0)
        (effects (font (size 1.27 1.27)) (justify left))
      )
      (property "Value" "C" (id 1) (at 0.635 -2.54 0)
        (effects (font (size 1.27 1.27)) (justify left))
      )
      (property "Footprint" "" (id 2) (at 0.9652 -3.81 0)
        (effects (font (size 1.27 1.27)) hide)
      )
      (property "Datasheet" "~" (id 3) (at 0 0 0)
        (effects (font (size 1.27 1.27)) hide)
      )
      (property "ki_keywords" "cap capacitor" (id 4) (at 0 0 0)
        (effects (font (size 1.27 1.27)) hide)
      )
      (property "ki_description" "Unpolarized capacitor" (id 5) (at 0 0 0)
        (effects (font (size 1.27 1.27)) hide)
      )
      (property "ki_fp_filters" "C_*" (id 6) (at 0 0 0)
        (effects (font (size 1.27 1.27)) hide)
      )
      (symbol "C_0_1"
        (polyline
          (pts
            (xy -2.032 -0.762)
            (xy 2.032 -0.762)
          )
          (stroke (width 0.508) (type default) (color 0 0 0 0))
          (fill (type none))
        )
        (polyline
          (pts
            (xy -2.032 0.762)
            (xy 2.032 0.762)
          )
          (stroke (width 0.508) (type default) (color 0 0 0 0))
          (fill (type none))
        )
      )
      (symbol "C_1_1"
        (pin passive line (at 0 3.81 270) (length 2.794)
          (name "~" (effects (font (size 1.27 1.27))))
          (number "1" (effects (font (size 1.27 1.27))))
        )
        (pin passive line (at 0 -3.81 90) (length 2.794)
          (name "~" (effects (font (size 1.27 1.27))))
          (number "2" (effects (font (size 1.27 1.27))))
        )
      )
    )
    (symbol "Device:LED" (pin_numbers hide) (pin_names (offset 1.016) hide) (in_bom yes) (on_board yes)
      (property "Reference" "D" (id 0) (at 0 2.54 0)
        (effects (font (size 1.27 1.27)))
      )
      (property "Value" "LED" (id 1) (at 0 -2.54 0)
        (effects (font (size 1.27 1.27)))
      )
      (property "Footprint" "" (id 2) (at 0 0 0)
        (effects (font (size 1.27 1.27)) hide)
      )
      (property "Datasheet" "~" (id 3) (at 0 0 0)
        (effects (font (size 1.27 1.27)) hide)
      )
      (property "ki_keywords" "LED diode" (id 4) (at 0 0 0)
        (effects (font (size 1.27 1.27)) hide)
      )
      (property "ki_description" "Light emitting diode" (id 5) (at 0 0 0)
        (effects (font (size 1.27 1.27)) hide)
      )
      (property "ki_fp_filters" "LED* LED_SMD:* LED_THT:*" (id 6) (at 0 0 0)
        (effects (font (size 1.27 1.27)) hide)
      )
      (symbol "LED_0_1"
        (polyline
          (pts
            (xy -1.27 -1.27)
            (xy -1.27 1.27)
          )
          (stroke (width 0.254) (type default) (color 0 0 0 0))
          (fill (type none))
        )
        (polyline
          (pts
            (xy -1.27 0)
            (xy 1.27 0)
          )
          (stroke (width 0) (type default) (color 0 0 0 0))
          (fill (type none))
        )
        (polyline
          (pts
            (xy 1.27 -1.27)
            (xy 1.27 1.27)
            (xy -1.27 0)
            (xy 1.27 -1.27)
          )
          (stroke (width 0.254) (type default) (color 0 0 0 0))
          (fill (type none))
        )
        (polyline
          (pts
            (xy -3.048 -0.762)
            (xy -4.572 -2.286)
            (xy -3.81 -2.286)
            (xy -4.572 -2.286)
            (xy -4.572 -1.524)
          )
          (stroke (width 0) (type default) (color 0 0 0 0))
          (fill (type none))
        )
        (polyline
          (pts
            (xy -1.778 -0.762)
            (xy -3.302 -2.286)
            (xy -2.54 -2.286)
            (xy -3.302 -2.286)
            (xy -3.302 -1.524)
          )
          (stroke (width 0) (type default) (color 0 0 0 0))
          (fill (type none))
        )
      )
      (symbol "LED_1_1"
        (pin passive line (at -3.81 0 0) (length 2.54)
          (name "K" (effects (font (size 1.27 1.27))))
          (number "1" (effects (font (size 1.27 1.27))))
        )
        (pin passive line (at 3.81 0 180) (length 2.54)
          (name "A" (effects (font (size 1.27 1.27))))
          (number "2" (effects (font (size 1.27 1.27))))
        )
      )
    )
    (symbol "Device:R" (pin_numbers hide) (pin_names (offset 0)) (in_bom yes) (on_board yes)
      (property "Reference" "R" (id 0) (at 2.032 0 90)
        (effects (font (size 1.27 1.27)))
      )
      (property "Value" "R" (id 1) (at 0 0 90)
        (effects (font (size 1.27 1.27)))
      )
      (property "Footprint" "" (id 2) (at -1.778 0 90)
        (effects (font (size 1.27 1.27)) hide)
      )
      (property "Datasheet" "~" (id 3) (at 0 0 0)
        (effects (font (size 1.27 1.27)) hide)
      )
      (property "ki_keywords" "R res resistor" (id 4) (at 0 0 0)
        (effects (font (size 1.27 1.27)) hide)
      )
      (property "ki_description" "Resistor" (id 5) (at 0 0 0)
        (effects (font (size 1.27 1.27)) hide)
      )
      (property "ki_fp_filters" "R_*" (id 6) (at 0 0 0)
        (effects (font (size 1.27 1.27)) hide)
      )
      (symbol "R_0_1"
        (rectangle (start -1.016 -2.54) (end 1.016 2.54)
          (stroke (width 0.254) (type default) (color 0 0 0 0))
          (fill (type none))
        )
      )
      (symbol "R_1_1"
        (pin passive line (at 0 3.81 270) (length 1.27)
          (name "~" (effects (font (size 1.27 1.27))))
          (number "1" (effects (font (size 1.27 1.27))))
        )
        (pin passive line (at 0 -3.81 90) (length 1.27)
          (name "~" (effects (font (size 1.27 1.27))))
          (number "2" (effects (font (size 1.27 1.27))))
        )
      )
    )
    (symbol "FS8205A:FS8205A" (in_bom yes) (on_board yes)
      (property "Reference" "U?" (id 0) (at 13.97 9.1188 0)
        (effects (font (size 1.27 1.27)))
      )
      (property "Value" "FS8205A" (id 1) (at 13.97 6.5788 0)
        (effects (font (size 1.27 1.27)))
      )
      (property "Footprint" "Package_SO:TSSOP-8_4.4x3mm_P0.65mm" (id 2) (at 22.86 8.89 0)
        (effects (font (size 1.27 1.27)) hide)
      )
      (property "Datasheet" "" (id 3) (at 0 0 0)
        (effects (font (size 1.27 1.27)) hide)
      )
      (symbol "FS8205A_0_0"
        (rectangle (start -48.26 20.32) (end -48.26 20.32)
          (stroke (width 0) (type default) (color 0 0 0 0))
          (fill (type none))
        )
        (rectangle (start -34.29 -15.24) (end -34.29 -15.24)
          (stroke (width 0) (type default) (color 0 0 0 0))
          (fill (type none))
        )
        (rectangle (start -34.29 -15.24) (end -34.29 -15.24)
          (stroke (width 0) (type default) (color 0 0 0 0))
          (fill (type none))
        )
        (polyline
          (pts
            (xy -34.29 -15.24)
            (xy -34.29 -15.24)
          )
          (stroke (width 0) (type default) (color 0 0 0 0))
          (fill (type none))
        )
        (polyline
          (pts
            (xy -34.29 -15.24)
            (xy -34.29 -15.24)
          )
          (stroke (width 0) (type default) (color 0 0 0 0))
          (fill (type none))
        )
        (text "D" (at -3.81 -3.81 0)
          (effects (font (size 1.27 1.27)))
        )
        (text "D" (at 2.54 3.81 0)
          (effects (font (size 1.27 1.27)))
        )
        (text "G" (at -3.81 5.08 0)
          (effects (font (size 1.27 1.27)))
        )
        (text "G" (at 2.54 -5.08 0)
          (effects (font (size 1.27 1.27)))
        )
        (text "S" (at -6.35 -3.81 0)
          (effects (font (size 1.27 1.27)))
        )
        (text "S" (at 5.08 3.81 0)
          (effects (font (size 1.27 1.27)))
        )
      )
      (symbol "FS8205A_0_1"
        (rectangle (start -10.16 6.35) (end 8.89 -6.35)
          (stroke (width 0) (type default) (color 0 0 0 0))
          (fill (type none))
        )
        (circle (center -6.858 0) (radius 0.254)
          (stroke (width 0) (type default) (color 0 0 0 0))
          (fill (type outline))
        )
        (circle (center -5.08 0.889) (radius 2.794)
          (stroke (width 0.254) (type default) (color 0 0 0 0))
          (fill (type none))
        )
        (circle (center -3.302 0) (radius 0.254)
          (stroke (width 0) (type default) (color 0 0 0 0))
          (fill (type outline))
        )
        (polyline
          (pts
            (xy -8.89 0)
            (xy -7.62 0)
          )
          (stroke (width 0) (type default) (color 0 0 0 0))
          (fill (type none))
        )
        (polyline
          (pts
            (xy -6.35 1.778)
            (xy -7.366 1.778)
          )
          (stroke (width 0.254) (type default) (color 0 0 0 0))
          (fill (type none))
        )
        (polyline
          (pts
            (xy -5.08 2.286)
            (xy -5.08 5.08)
          )
          (stroke (width 0) (type default) (color 0 0 0 0))
          (fill (type none))
        )
        (polyline
          (pts
            (xy -5.08 5.08)
            (xy -5.08 6.35)
          )
          (stroke (width 0) (type default) (color 0 0 0 0))
          (fill (type none))
        )
        (polyline
          (pts
            (xy -4.572 1.778)
            (xy -5.588 1.778)
          )
          (stroke (width 0.254) (type default) (color 0 0 0 0))
          (fill (type none))
        )
        (polyline
          (pts
            (xy -3.175 2.286)
            (xy -6.985 2.286)
          )
          (stroke (width 0.254) (type default) (color 0 0 0 0))
          (fill (type none))
        )
        (polyline
          (pts
            (xy -2.794 1.778)
            (xy -3.81 1.778)
          )
          (stroke (width 0.254) (type default) (color 0 0 0 0))
          (fill (type none))
        )
        (polyline
          (pts
            (xy -2.54 0)
            (xy -3.302 0)
          )
          (stroke (width 0) (type default) (color 0 0 0 0))
          (fill (type none))
        )
        (polyline
          (pts
            (xy 1.27 0)
            (xy 2.032 0)
          )
          (stroke (width 0) (type default) (color 0 0 0 0))
          (fill (type none))
        )
        (polyline
          (pts
            (xy 1.524 -1.778)
            (xy 2.54 -1.778)
          )
          (stroke (width 0.254) (type default) (color 0 0 0 0))
          (fill (type none))
        )
        (polyline
          (pts
            (xy 1.905 -2.286)
            (xy 5.715 -2.286)
          )
          (stroke (width 0.254) (type default) (color 0 0 0 0))
          (fill (type none))
        )
        (polyline
          (pts
            (xy 3.302 -1.778)
            (xy 4.318 -1.778)
          )
          (stroke (width 0.254) (type default) (color 0 0 0 0))
          (fill (type none))
        )
        (polyline
          (pts
            (xy 3.81 -2.286)
            (xy 3.81 -5.08)
          )
          (stroke (width 0) (type default) (color 0 0 0 0))
          (fill (type none))
        )
        (polyline
          (pts
            (xy 5.08 -1.778)
            (xy 6.096 -1.778)
          )
          (stroke (width 0.254) (type default) (color 0 0 0 0))
          (fill (type none))
        )
        (polyline
          (pts
            (xy -7.62 0)
            (xy -5.08 0)
            (xy -5.08 1.778)
          )
          (stroke (width 0) (type default) (color 0 0 0 0))
          (fill (type none))
        )
        (polyline
          (pts
            (xy 1.27 0)
            (xy -2.54 0)
            (xy -1.27 0)
          )
          (stroke (width 0) (type default) (color 0 0 0 0))
          (fill (type none))
        )
        (polyline
          (pts
            (xy 3.81 -5.08)
            (xy 3.81 -6.35)
            (xy 5.08 -6.35)
          )
          (stroke (width 0) (type default) (color 0 0 0 0))
          (fill (type none))
        )
        (polyline
          (pts
            (xy 6.35 0)
            (xy 3.81 0)
            (xy 3.81 -1.778)
          )
          (stroke (width 0) (type default) (color 0 0 0 0))
          (fill (type none))
        )
        (polyline
          (pts
            (xy 8.89 -3.81)
            (xy 7.62 -3.81)
            (xy 7.62 0)
          )
          (stroke (width 0) (type default) (color 0 0 0 0))
          (fill (type none))
        )
        (polyline
          (pts
            (xy -6.858 1.778)
            (xy -6.858 -0.762)
            (xy -3.302 -0.762)
            (xy -3.302 1.778)
          )
          (stroke (width 0) (type default) (color 0 0 0 0))
          (fill (type none))
        )
        (polyline
          (pts
            (xy -5.08 1.524)
            (xy -4.699 0.508)
            (xy -5.461 0.508)
            (xy -5.08 1.524)
          )
          (stroke (width 0) (type default) (color 0 0 0 0))
          (fill (type outline))
        )
        (polyline
          (pts
            (xy -4.699 -0.762)
            (xy -5.334 -0.381)
            (xy -5.334 -1.143)
            (xy -4.699 -0.762)
          )
          (stroke (width 0) (type default) (color 0 0 0 0))
          (fill (type none))
        )
        (polyline
          (pts
            (xy -4.572 -0.254)
            (xy -4.699 -0.381)
            (xy -4.699 -1.143)
            (xy -4.826 -1.27)
          )
          (stroke (width 0) (type default) (color 0 0 0 0))
          (fill (type none))
        )
        (polyline
          (pts
            (xy 3.302 0.254)
            (xy 3.429 0.381)
            (xy 3.429 1.143)
            (xy 3.556 1.27)
          )
          (stroke (width 0) (type default) (color 0 0 0 0))
          (fill (type none))
        )
        (polyline
          (pts
            (xy 3.429 0.762)
            (xy 4.064 0.381)
            (xy 4.064 1.143)
            (xy 3.429 0.762)
          )
          (stroke (width 0) (type default) (color 0 0 0 0))
          (fill (type none))
        )
        (polyline
          (pts
            (xy 3.81 -1.524)
            (xy 3.429 -0.508)
            (xy 4.191 -0.508)
            (xy 3.81 -1.524)
          )
          (stroke (width 0) (type default) (color 0 0 0 0))
          (fill (type outline))
        )
        (polyline
          (pts
            (xy 5.588 -1.778)
            (xy 5.588 0.762)
            (xy 2.032 0.762)
            (xy 2.032 -1.778)
          )
          (stroke (width 0) (type default) (color 0 0 0 0))
          (fill (type none))
        )
        (polyline
          (pts
            (xy 8.89 3.81)
            (xy 7.62 3.81)
            (xy 7.62 0)
            (xy 6.35 0)
          )
          (stroke (width 0) (type default) (color 0 0 0 0))
          (fill (type none))
        )
        (polyline
          (pts
            (xy -10.16 -3.81)
            (xy -8.89 -3.81)
            (xy -8.89 3.81)
            (xy -10.16 3.81)
            (xy -10.16 1.27)
          )
          (stroke (width 0) (type default) (color 0 0 0 0))
          (fill (type none))
        )
        (circle (center 2.032 0) (radius 0.254)
          (stroke (width 0) (type default) (color 0 0 0 0))
          (fill (type outline))
        )
        (circle (center 3.81 -0.889) (radius 2.794)
          (stroke (width 0.254) (type default) (color 0 0 0 0))
          (fill (type none))
        )
        (circle (center 5.588 0) (radius 0.254)
          (stroke (width 0) (type default) (color 0 0 0 0))
          (fill (type outline))
        )
      )
      (symbol "FS8205A_1_1"
        (pin input line (at 0 8.89 270) (length 2.54)
          (name "D12" (effects (font (size 1.27 1.27))))
          (number "1" (effects (font (size 1.27 1.27))))
        )
        (pin input line (at -12.7 3.81 0) (length 2.54)
          (name "S1" (effects (font (size 1.27 1.27))))
          (number "2" (effects (font (size 1.27 1.27))))
        )
        (pin input line (at -12.7 -3.81 0) (length 2.54)
          (name "S1" (effects (font (size 1.27 1.27))))
          (number "3" (effects (font (size 1.27 1.27))))
        )
        (pin input line (at -5.08 8.89 270) (length 2.54)
          (name "G1" (effects (font (size 1.27 1.27))))
          (number "4" (effects (font (size 1.27 1.27))))
        )
        (pin input line (at 3.81 -8.89 90) (length 2.54)
          (name "G2" (effects (font (size 1.27 1.27))))
          (number "5" (effects (font (size 1.27 1.27))))
        )
        (pin input line (at 11.43 -3.81 180) (length 2.54)
          (name "S2" (effects (font (size 1.27 1.27))))
          (number "6" (effects (font (size 1.27 1.27))))
        )
        (pin input line (at 11.43 3.81 180) (length 2.54)
          (name "S2" (effects (font (size 1.27 1.27))))
          (number "7" (effects (font (size 1.27 1.27))))
        )
        (pin input line (at 0 -8.89 90) (length 2.54)
          (name "D12" (effects (font (size 1.27 1.27))))
          (number "8" (effects (font (size 1.27 1.27))))
        )
      )
    )
    (symbol "TC4056A:TC4056A" (in_bom yes) (on_board yes)
      (property "Reference" "U" (id 0) (at 0 0 0)
        (effects (font (size 1.27 1.27)))
      )
      (property "Value" "TC4056A" (id 1) (at 0 -2.54 0)
        (effects (font (size 1.27 1.27)))
      )
      (property "Footprint" "Package_SO:SO-8_3.9x4.9mm_P1.27mm" (id 2) (at 1.27 -12.7 0)
        (effects (font (size 1.27 1.27)) hide)
      )
      (property "Datasheet" "" (id 3) (at 0 0 0)
        (effects (font (size 1.27 1.27)) hide)
      )
      (symbol "TC4056A_0_1"
        (rectangle (start -10.16 10.16) (end 10.16 -10.16)
          (stroke (width 0) (type default) (color 0 0 0 0))
          (fill (type none))
        )
      )
      (symbol "TC4056A_1_1"
        (pin input line (at -12.7 7.62 0) (length 2.54)
          (name "TEMP" (effects (font (size 1.27 1.27))))
          (number "1" (effects (font (size 1.27 1.27))))
        )
        (pin input line (at -12.7 2.54 0) (length 2.54)
          (name "PROG" (effects (font (size 1.27 1.27))))
          (number "2" (effects (font (size 1.27 1.27))))
        )
        (pin power_in line (at -12.7 -2.54 0) (length 2.54)
          (name "GND" (effects (font (size 1.27 1.27))))
          (number "3" (effects (font (size 1.27 1.27))))
        )
        (pin power_in line (at -12.7 -7.62 0) (length 2.54)
          (name "VCC" (effects (font (size 1.27 1.27))))
          (number "4" (effects (font (size 1.27 1.27))))
        )
        (pin power_out line (at 12.7 7.62 180) (length 2.54)
          (name "BAT" (effects (font (size 1.27 1.27))))
          (number "5" (effects (font (size 1.27 1.27))))
        )
        (pin input line (at 12.7 2.54 180) (length 2.54)
          (name "STDBY" (effects (font (size 1.27 1.27))))
          (number "6" (effects (font (size 1.27 1.27))))
        )
        (pin power_in line (at 12.7 -2.54 180) (length 2.54)
          (name "CHRG" (effects (font (size 1.27 1.27))))
          (number "7" (effects (font (size 1.27 1.27))))
        )
        (pin input line (at 12.7 -7.62 180) (length 2.54)
          (name "CE" (effects (font (size 1.27 1.27))))
          (number "8" (effects (font (size 1.27 1.27))))
        )
      )
    )
    (symbol "Transistor_FET:DMG3404L" (pin_names hide) (in_bom yes) (on_board yes)
      (property "Reference" "Q" (id 0) (at 5.08 1.905 0)
        (effects (font (size 1.27 1.27)) (justify left))
      )
      (property "Value" "DMG3404L" (id 1) (at 5.08 0 0)
        (effects (font (size 1.27 1.27)) (justify left))
      )
      (property "Footprint" "Package_TO_SOT_SMD:SOT-23" (id 2) (at 5.08 -1.905 0)
        (effects (font (size 1.27 1.27) italic) (justify left) hide)
      )
      (property "Datasheet" "http://www.diodes.com/assets/Datasheets/DMG3404L.pdf" (id 3) (at 0 0 0)
        (effects (font (size 1.27 1.27)) (justify left) hide)
      )
      (property "ki_keywords" "N-Channel MOSFET" (id 4) (at 0 0 0)
        (effects (font (size 1.27 1.27)) hide)
      )
      (property "ki_description" "5.8A Id, 30V Vds, N-Channel MOSFET, SOT-23" (id 5) (at 0 0 0)
        (effects (font (size 1.27 1.27)) hide)
      )
      (property "ki_fp_filters" "SOT?23*" (id 6) (at 0 0 0)
        (effects (font (size 1.27 1.27)) hide)
      )
      (symbol "DMG3404L_0_1"
        (polyline
          (pts
            (xy 0.254 0)
            (xy -2.54 0)
          )
          (stroke (width 0) (type default) (color 0 0 0 0))
          (fill (type none))
        )
        (polyline
          (pts
            (xy 0.254 1.905)
            (xy 0.254 -1.905)
          )
          (stroke (width 0.254) (type default) (color 0 0 0 0))
          (fill (type none))
        )
        (polyline
          (pts
            (xy 0.762 -1.27)
            (xy 0.762 -2.286)
          )
          (stroke (width 0.254) (type default) (color 0 0 0 0))
          (fill (type none))
        )
        (polyline
          (pts
            (xy 0.762 0.508)
            (xy 0.762 -0.508)
          )
          (stroke (width 0.254) (type default) (color 0 0 0 0))
          (fill (type none))
        )
        (polyline
          (pts
            (xy 0.762 2.286)
            (xy 0.762 1.27)
          )
          (stroke (width 0.254) (type default) (color 0 0 0 0))
          (fill (type none))
        )
        (polyline
          (pts
            (xy 2.54 2.54)
            (xy 2.54 1.778)
          )
          (stroke (width 0) (type default) (color 0 0 0 0))
          (fill (type none))
        )
        (polyline
          (pts
            (xy 2.54 -2.54)
            (xy 2.54 0)
            (xy 0.762 0)
          )
          (stroke (width 0) (type default) (color 0 0 0 0))
          (fill (type none))
        )
        (polyline
          (pts
            (xy 0.762 -1.778)
            (xy 3.302 -1.778)
            (xy 3.302 1.778)
            (xy 0.762 1.778)
          )
          (stroke (width 0) (type default) (color 0 0 0 0))
          (fill (type none))
        )
        (polyline
          (pts
            (xy 1.016 0)
            (xy 2.032 0.381)
            (xy 2.032 -0.381)
            (xy 1.016 0)
          )
          (stroke (width 0) (type default) (color 0 0 0 0))
          (fill (type outline))
        )
        (polyline
          (pts
            (xy 2.794 0.508)
            (xy 2.921 0.381)
            (xy 3.683 0.381)
            (xy 3.81 0.254)
          )
          (stroke (width 0) (type default) (color 0 0 0 0))
          (fill (type none))
        )
        (polyline
          (pts
            (xy 3.302 0.381)
            (xy 2.921 -0.254)
            (xy 3.683 -0.254)
            (xy 3.302 0.381)
          )
          (stroke (width 0) (type default) (color 0 0 0 0))
          (fill (type none))
        )
        (circle (center 1.651 0) (radius 2.794)
          (stroke (width 0.254) (type default) (color 0 0 0 0))
          (fill (type none))
        )
        (circle (center 2.54 -1.778) (radius 0.254)
          (stroke (width 0) (type default) (color 0 0 0 0))
          (fill (type outline))
        )
        (circle (center 2.54 1.778) (radius 0.254)
          (stroke (width 0) (type default) (color 0 0 0 0))
          (fill (type outline))
        )
      )
      (symbol "DMG3404L_1_1"
        (pin input line (at -5.08 0 0) (length 2.54)
          (name "G" (effects (font (size 1.27 1.27))))
          (number "1" (effects (font (size 1.27 1.27))))
        )
        (pin passive line (at 2.54 -5.08 90) (length 2.54)
          (name "S" (effects (font (size 1.27 1.27))))
          (number "2" (effects (font (size 1.27 1.27))))
        )
        (pin passive line (at 2.54 5.08 270) (length 2.54)
          (name "D" (effects (font (size 1.27 1.27))))
          (number "3" (effects (font (size 1.27 1.27))))
        )
      )
    )
  )

  (junction (at 64.77 123.19) (diameter 0) (color 0 0 0 0)
    (uuid 4d38f25c-fb4b-406d-9b53-ae3a55f1254c)
  )
  (junction (at 99.06 91.44) (diameter 0) (color 0 0 0 0)
    (uuid 5c961531-cdcb-4fbd-bb62-65ecfd4df509)
  )
  (junction (at 148.59 40.64) (diameter 0) (color 0 0 0 0)
    (uuid 6180cc79-bde2-4280-b376-86fcb4180be5)
  )
  (junction (at 93.98 40.64) (diameter 0) (color 0 0 0 0)
    (uuid 645baa37-c0ed-47d1-9bd3-1ff9cb190dd6)
  )
  (junction (at 91.44 123.19) (diameter 0) (color 0 0 0 0)
    (uuid a27eb8d8-0c53-4171-a7c4-86fed3296b04)
  )
  (junction (at 99.06 74.93) (diameter 0) (color 0 0 0 0)
    (uuid bf488f3f-38ab-435f-89fe-05717828b6e0)
  )

  (no_connect (at 90.17 77.47) (uuid 461a00b4-be59-42d2-97c4-1cd5a71c192a))
  (no_connect (at 78.74 114.3) (uuid 78df38c1-0bd5-438d-8872-28335c16f509))
  (no_connect (at 78.74 132.08) (uuid 78df38c1-0bd5-438d-8872-28335c16f509))

  (wire (pts (xy 143.51 114.3) (xy 140.97 114.3))
    (stroke (width 0) (type default) (color 0 0 0 0))
    (uuid 0860935d-f11d-4c50-9f4f-0b8d6051390c)
  )
  (wire (pts (xy 93.98 40.64) (xy 104.14 40.64))
    (stroke (width 0) (type default) (color 0 0 0 0))
    (uuid 089f670b-849e-49c0-89d5-895b56e91c01)
  )
  (wire (pts (xy 90.17 127) (xy 91.44 127))
    (stroke (width 0) (type default) (color 0 0 0 0))
    (uuid 09c2933b-697f-4086-a35e-511b00ac06d9)
  )
  (wire (pts (xy 149.86 36.83) (xy 149.86 40.64))
    (stroke (width 0) (type default) (color 0 0 0 0))
    (uuid 1060b9f0-4ac7-41af-9164-402adaac21d5)
  )
  (wire (pts (xy 143.51 77.47) (xy 140.97 77.47))
    (stroke (width 0) (type default) (color 0 0 0 0))
    (uuid 11c5d553-a2e2-4f88-9732-7c48de3fce10)
  )
  (wire (pts (xy 96.52 147.32) (xy 92.71 147.32))
    (stroke (width 0) (type default) (color 0 0 0 0))
    (uuid 1333b9dc-e99d-4187-934b-0fd53a774cd9)
  )
  (wire (pts (xy 59.69 45.72) (xy 58.42 45.72))
    (stroke (width 0) (type default) (color 0 0 0 0))
    (uuid 171b8408-0394-46d0-85a5-6ea3c562cdb8)
  )
  (wire (pts (xy 73.66 110.49) (xy 73.66 114.3))
    (stroke (width 0) (type default) (color 0 0 0 0))
    (uuid 1c696121-9865-4fd2-8f33-eae16ff6156a)
  )
  (wire (pts (xy 147.32 38.1) (xy 147.32 40.64))
    (stroke (width 0) (type default) (color 0 0 0 0))
    (uuid 1c85a88b-bf92-4bf5-8bc3-55b15db67204)
  )
  (wire (pts (xy 102.87 74.93) (xy 99.06 74.93))
    (stroke (width 0) (type default) (color 0 0 0 0))
    (uuid 1c8c18e5-740c-442d-8719-ddf26814deb5)
  )
  (wire (pts (xy 137.16 140.97) (xy 147.32 140.97))
    (stroke (width 0) (type default) (color 0 0 0 0))
    (uuid 221ea688-c6a3-4cd5-9934-c05ac697e9aa)
  )
  (wire (pts (xy 137.16 148.59) (xy 147.32 148.59))
    (stroke (width 0) (type default) (color 0 0 0 0))
    (uuid 229ba6ba-dd1a-4e69-a500-fc279c69d69a)
  )
  (wire (pts (xy 97.79 91.44) (xy 99.06 91.44))
    (stroke (width 0) (type default) (color 0 0 0 0))
    (uuid 24fc090d-90b0-46cd-99fa-c2e209917d6e)
  )
  (wire (pts (xy 62.23 147.32) (xy 59.69 147.32))
    (stroke (width 0) (type default) (color 0 0 0 0))
    (uuid 295c447a-e802-40f4-9873-86910d8b49ba)
  )
  (wire (pts (xy 95.25 123.19) (xy 91.44 123.19))
    (stroke (width 0) (type default) (color 0 0 0 0))
    (uuid 2a7eaf6e-1d73-4aa7-bebd-d69f231f10b2)
  )
  (wire (pts (xy 87.63 161.29) (xy 87.63 154.94))
    (stroke (width 0) (type default) (color 0 0 0 0))
    (uuid 2b27fe62-aff9-4114-97bf-eede9ff0f1cd)
  )
  (wire (pts (xy 90.17 74.93) (xy 99.06 74.93))
    (stroke (width 0) (type default) (color 0 0 0 0))
    (uuid 2fd4b7c7-dc76-47fa-8883-fcdfda486170)
  )
  (wire (pts (xy 91.44 119.38) (xy 91.44 123.19))
    (stroke (width 0) (type default) (color 0 0 0 0))
    (uuid 3e248cbb-a766-48b0-aa14-4257a3ce1c6c)
  )
  (wire (pts (xy 137.16 158.75) (xy 146.05 158.75))
    (stroke (width 0) (type default) (color 0 0 0 0))
    (uuid 43d34e21-62ec-42a1-a1c9-809a5cfd0b1a)
  )
  (wire (pts (xy 68.58 50.8) (xy 58.42 50.8))
    (stroke (width 0) (type default) (color 0 0 0 0))
    (uuid 4739f3ce-8df6-424a-b7db-f45267fbab95)
  )
  (wire (pts (xy 147.32 40.64) (xy 148.59 40.64))
    (stroke (width 0) (type default) (color 0 0 0 0))
    (uuid 48639367-9500-4d24-9c3a-db079f18fdc7)
  )
  (wire (pts (xy 93.98 38.1) (xy 93.98 40.64))
    (stroke (width 0) (type default) (color 0 0 0 0))
    (uuid 4aebdcfd-285f-4096-9d83-a1417eaf7ed0)
  )
  (wire (pts (xy 93.98 50.8) (xy 96.52 50.8))
    (stroke (width 0) (type default) (color 0 0 0 0))
    (uuid 4e9a66a3-47a3-46b0-8af5-35821cbea845)
  )
  (wire (pts (xy 90.17 119.38) (xy 91.44 119.38))
    (stroke (width 0) (type default) (color 0 0 0 0))
    (uuid 5103289e-2ac8-4d67-bdcc-ff242bdfb8d8)
  )
  (wire (pts (xy 148.59 52.07) (xy 148.59 55.88))
    (stroke (width 0) (type default) (color 0 0 0 0))
    (uuid 544fede5-fca8-4311-94b0-1f7f7d46af50)
  )
  (wire (pts (xy 100.33 91.44) (xy 99.06 91.44))
    (stroke (width 0) (type default) (color 0 0 0 0))
    (uuid 546f0033-b764-4e4e-a2ae-84c777105a86)
  )
  (wire (pts (xy 72.39 74.93) (xy 73.66 74.93))
    (stroke (width 0) (type default) (color 0 0 0 0))
    (uuid 548a4fa9-cc2d-4f2e-bdd4-cdcd5bbc972d)
  )
  (wire (pts (xy 137.16 154.94) (xy 146.05 154.94))
    (stroke (width 0) (type default) (color 0 0 0 0))
    (uuid 54b78bd1-bd0d-4b1f-aa22-b00a1da970b5)
  )
  (wire (pts (xy 148.59 44.45) (xy 148.59 40.64))
    (stroke (width 0) (type default) (color 0 0 0 0))
    (uuid 6155fbda-af87-4e52-82cf-ad8f0db3fd2d)
  )
  (wire (pts (xy 64.77 123.19) (xy 62.23 123.19))
    (stroke (width 0) (type default) (color 0 0 0 0))
    (uuid 756a4005-8a7b-4426-9710-0d841a96c0b4)
  )
  (wire (pts (xy 143.51 80.01) (xy 140.97 80.01))
    (stroke (width 0) (type default) (color 0 0 0 0))
    (uuid 769770cc-110e-491b-bdc8-d7324bdafa05)
  )
  (wire (pts (xy 39.37 52.07) (xy 39.37 55.88))
    (stroke (width 0) (type default) (color 0 0 0 0))
    (uuid 7cb0d30c-efe4-4506-ac69-d962e12bc8c6)
  )
  (wire (pts (xy 67.31 161.29) (xy 67.31 154.94))
    (stroke (width 0) (type default) (color 0 0 0 0))
    (uuid 8b4e49e7-59ab-4469-8905-079d5e2ab292)
  )
  (wire (pts (xy 91.44 127) (xy 91.44 123.19))
    (stroke (width 0) (type default) (color 0 0 0 0))
    (uuid 8c91878d-7b88-4f6e-bf23-95ef33e5d58b)
  )
  (wire (pts (xy 143.51 116.84) (xy 140.97 116.84))
    (stroke (width 0) (type default) (color 0 0 0 0))
    (uuid 9e4b99a7-4fa2-4955-8efc-7ee1db94a700)
  )
  (wire (pts (xy 104.14 50.8) (xy 106.68 50.8))
    (stroke (width 0) (type default) (color 0 0 0 0))
    (uuid a13e0099-f60d-4c6e-9586-2afa3e342a2c)
  )
  (wire (pts (xy 97.79 72.39) (xy 90.17 72.39))
    (stroke (width 0) (type default) (color 0 0 0 0))
    (uuid a2743809-dd04-4f7d-875b-e28a92f78686)
  )
  (wire (pts (xy 104.14 45.72) (xy 106.68 45.72))
    (stroke (width 0) (type default) (color 0 0 0 0))
    (uuid a40631ed-0e50-48a6-9ead-6cde28ed7413)
  )
  (wire (pts (xy 68.58 45.72) (xy 67.31 45.72))
    (stroke (width 0) (type default) (color 0 0 0 0))
    (uuid a745e994-1435-4e0e-a2b7-6e53a4b7a5f0)
  )
  (wire (pts (xy 114.3 50.8) (xy 118.11 50.8))
    (stroke (width 0) (type default) (color 0 0 0 0))
    (uuid ac2ee1fe-1257-47c0-ac10-860a3868eaff)
  )
  (wire (pts (xy 68.58 40.64) (xy 58.42 40.64))
    (stroke (width 0) (type default) (color 0 0 0 0))
    (uuid aec58ec1-7225-41c1-8908-546d15a2b70c)
  )
  (wire (pts (xy 64.77 74.93) (xy 59.69 74.93))
    (stroke (width 0) (type default) (color 0 0 0 0))
    (uuid b0477f62-0530-4bb2-ba7c-75b7991e37b0)
  )
  (wire (pts (xy 73.66 77.47) (xy 59.69 77.47))
    (stroke (width 0) (type default) (color 0 0 0 0))
    (uuid b6cca88a-0e7d-4a6b-ba44-82face9b8b58)
  )
  (wire (pts (xy 110.49 74.93) (xy 114.3 74.93))
    (stroke (width 0) (type default) (color 0 0 0 0))
    (uuid b94d7d99-ece1-48a3-a483-cd4f549a4594)
  )
  (wire (pts (xy 93.98 55.88) (xy 104.14 55.88))
    (stroke (width 0) (type default) (color 0 0 0 0))
    (uuid bda387a3-fdb5-4433-9b06-7aa431d84946)
  )
  (wire (pts (xy 143.51 97.79) (xy 140.97 97.79))
    (stroke (width 0) (type default) (color 0 0 0 0))
    (uuid c60589a2-b79f-4882-8433-ddb88df1adca)
  )
  (wire (pts (xy 66.04 119.38) (xy 64.77 119.38))
    (stroke (width 0) (type default) (color 0 0 0 0))
    (uuid c7167511-bf9b-418f-b739-b01ad3153b7a)
  )
  (wire (pts (xy 97.79 93.98) (xy 97.79 91.44))
    (stroke (width 0) (type default) (color 0 0 0 0))
    (uuid c9346956-61f6-47cd-be72-58734a217995)
  )
  (wire (pts (xy 100.33 95.25) (xy 100.33 91.44))
    (stroke (width 0) (type default) (color 0 0 0 0))
    (uuid cd4d5db2-8045-4604-9241-bba55b675a76)
  )
  (wire (pts (xy 64.77 127) (xy 66.04 127))
    (stroke (width 0) (type default) (color 0 0 0 0))
    (uuid ce049012-1370-4133-bcc1-fc13a2847412)
  )
  (wire (pts (xy 137.16 144.78) (xy 147.32 144.78))
    (stroke (width 0) (type default) (color 0 0 0 0))
    (uuid d100f12e-c16b-40a0-9ba1-9a415ac557d8)
  )
  (wire (pts (xy 82.55 135.89) (xy 82.55 132.08))
    (stroke (width 0) (type default) (color 0 0 0 0))
    (uuid d43991ee-2f59-41ce-964c-45258faa9db4)
  )
  (wire (pts (xy 93.98 38.1) (xy 102.87 38.1))
    (stroke (width 0) (type default) (color 0 0 0 0))
    (uuid d5eda0cc-d401-48ac-97ea-1a94b183682c)
  )
  (wire (pts (xy 64.77 119.38) (xy 64.77 123.19))
    (stroke (width 0) (type default) (color 0 0 0 0))
    (uuid d6d37d41-a783-443e-a143-1d4ca541749d)
  )
  (wire (pts (xy 73.66 72.39) (xy 59.69 72.39))
    (stroke (width 0) (type default) (color 0 0 0 0))
    (uuid dca8b4fb-2ba1-40c7-b58a-b4ba94f173fb)
  )
  (wire (pts (xy 68.58 55.88) (xy 58.42 55.88))
    (stroke (width 0) (type default) (color 0 0 0 0))
    (uuid e6ee4714-1a83-4c28-a3f9-26798886cefd)
  )
  (wire (pts (xy 143.51 95.25) (xy 140.97 95.25))
    (stroke (width 0) (type default) (color 0 0 0 0))
    (uuid e763c562-eca6-42d8-b9f9-902d490457a6)
  )
  (wire (pts (xy 99.06 74.93) (xy 99.06 80.01))
    (stroke (width 0) (type default) (color 0 0 0 0))
    (uuid edc15894-e020-4650-93e1-b123a04f5f17)
  )
  (wire (pts (xy 149.86 40.64) (xy 148.59 40.64))
    (stroke (width 0) (type default) (color 0 0 0 0))
    (uuid f0708b7d-2cb3-48c8-9de0-e6bbf8f55df6)
  )
  (wire (pts (xy 64.77 123.19) (xy 64.77 127))
    (stroke (width 0) (type default) (color 0 0 0 0))
    (uuid f3627049-92d0-4d68-9e9b-f6b2e80b956a)
  )
  (wire (pts (xy 72.39 147.32) (xy 82.55 147.32))
    (stroke (width 0) (type default) (color 0 0 0 0))
    (uuid f379b28b-2730-4b8f-9f15-a14e04f6b365)
  )
  (wire (pts (xy 99.06 87.63) (xy 99.06 91.44))
    (stroke (width 0) (type default) (color 0 0 0 0))
    (uuid f542eb19-fb4c-4614-be6f-41ece775000d)
  )
  (wire (pts (xy 114.3 45.72) (xy 118.11 45.72))
    (stroke (width 0) (type default) (color 0 0 0 0))
    (uuid faa6744b-c250-4009-bc31-fc4eec3b50d7)
  )
  (wire (pts (xy 39.37 44.45) (xy 39.37 40.64))
    (stroke (width 0) (type default) (color 0 0 0 0))
    (uuid fad4e349-f7ba-46ec-89d9-e749b2ae1b36)
  )
  (wire (pts (xy 93.98 45.72) (xy 96.52 45.72))
    (stroke (width 0) (type default) (color 0 0 0 0))
    (uuid fbb7cde1-6762-49d1-af0d-4be63cd54107)
  )

  (text "POWER INPUT" (at 153.67 90.17 270)
    (effects (font (size 1.27 1.27)) (justify right bottom))
    (uuid 132b1ad8-9ba3-43f3-9fa0-15337bd22375)
  )
  (text "POWER OUTPUT" (at 153.67 109.22 270)
    (effects (font (size 1.27 1.27)) (justify right bottom))
    (uuid 34bd882f-c9a3-403e-87eb-065dd8c4477d)
  )
  (text "LION_BATERY_MANAGEMENT\n4.3V-2.6V; 4A" (at 181.61 180.34 0)
    (effects (font (size 1.27 1.27)) (justify left bottom))
    (uuid 742e3017-f6c2-4885-92f1-b5bef704b3d5)
  )
  (text "BATTERY SIDE" (at 153.67 72.39 270)
    (effects (font (size 1.27 1.27)) (justify right bottom))
    (uuid bc9a82f5-8993-4d23-9160-e03820ed1557)
  )
  (text "Batery management" (at 180.34 175.26 0)
    (effects (font (size 5 5)) (justify left bottom))
    (uuid be23e840-6383-444b-a300-dd423081927d)
  )

  (label "GND" (at 140.97 95.25 180)
    (effects (font (size 1.27 1.27)) (justify right bottom))
    (uuid 02323d61-cc7a-473e-9240-8fb0450a5aa7)
  )
  (label "LI_ION-" (at 140.97 77.47 180)
    (effects (font (size 1.27 1.27)) (justify right bottom))
    (uuid 06047ce7-df71-44f8-8816-2bd8544d7c22)
  )
  (label "VCC_I" (at 118.11 45.72 0)
    (effects (font (size 1.27 1.27)) (justify left bottom))
    (uuid 0629747d-7ed8-4a71-8bc0-aa30a9e852e6)
  )
  (label "VCC_I" (at 39.37 55.88 270)
    (effects (font (size 1.27 1.27)) (justify right bottom))
    (uuid 0bf39344-64dc-4289-a085-a06428454de8)
  )
  (label "GND" (at 59.69 147.32 180)
    (effects (font (size 1.27 1.27)) (justify right bottom))
    (uuid 0c19a17c-d36f-4afe-97b7-df7cd9054f2b)
  )
  (label "VCC_I" (at 58.42 55.88 180)
    (effects (font (size 1.27 1.27)) (justify right bottom))
    (uuid 10852496-2f07-4290-a6b9-91ed5b9479fc)
  )
  (label "GND" (at 62.23 123.19 180)
    (effects (font (size 1.27 1.27)) (justify right bottom))
    (uuid 10a13b92-0fcf-4fa2-ace0-567f98322173)
  )
  (label "OC" (at 67.31 161.29 270)
    (effects (font (size 1.27 1.27)) (justify right bottom))
    (uuid 1643bd1b-33b8-4491-9ccc-f9bd68553eac)
  )
  (label "GND" (at 140.97 114.3 180)
    (effects (font (size 1.27 1.27)) (justify right bottom))
    (uuid 20132186-9a4a-4b89-9095-d594164770a9)
  )
  (label "LI_ION+" (at 102.87 38.1 0)
    (effects (font (size 1.27 1.27)) (justify left bottom))
    (uuid 232a36fe-f5f6-4b7a-b67e-ff28a1441971)
  )
  (label "VCC_O" (at 140.97 116.84 180)
    (effects (font (size 1.27 1.27)) (justify right bottom))
    (uuid 28e5ece7-1e92-486c-86ba-91b6901b1d44)
  )
  (label "LI_ION-" (at 96.52 147.32 0)
    (effects (font (size 1.27 1.27)) (justify left bottom))
    (uuid 34a7e300-3276-4cc9-bdeb-c5555963bd9e)
  )
  (label "GND" (at 59.69 74.93 180)
    (effects (font (size 1.27 1.27)) (justify right bottom))
    (uuid 3a3f7394-044b-4ff4-9091-abbb1b27a9a3)
  )
  (label "LI_ION+" (at 146.05 154.94 0)
    (effects (font (size 1.27 1.27)) (justify left bottom))
    (uuid 3d89fac6-6e70-40a7-a1a8-c476c17514d2)
  )
  (label "GND" (at 58.42 45.72 180)
    (effects (font (size 1.27 1.27)) (justify right bottom))
    (uuid 44546a47-3af4-4a04-a3e0-ee1c39580b96)
  )
  (label "GND" (at 97.79 72.39 0)
    (effects (font (size 1.27 1.27)) (justify left bottom))
    (uuid 4922f5b9-ff44-4bb9-9a5e-15d31aba4916)
  )
  (label "OD" (at 82.55 135.89 270)
    (effects (font (size 1.27 1.27)) (justify right bottom))
    (uuid 4f4fbd78-873a-41ec-90ab-6ee0d78599da)
  )
  (label "OD" (at 87.63 161.29 270)
    (effects (font (size 1.27 1.27)) (justify right bottom))
    (uuid 526f2eda-09f7-40e4-b8d7-21660688202c)
  )
  (label "GND" (at 58.42 50.8 180)
    (effects (font (size 1.27 1.27)) (justify right bottom))
    (uuid 53dab796-0f2d-4744-8102-3092b3297e41)
  )
  (label "VCC_O" (at 147.32 144.78 0)
    (effects (font (size 1.27 1.27)) (justify left bottom))
    (uuid 55a6776d-6b7a-4ae7-9a0a-88c117bf2749)
  )
  (label "LI_ION-" (at 95.25 123.19 0)
    (effects (font (size 1.27 1.27)) (justify left bottom))
    (uuid 58914dab-ed1e-405a-b790-a97fcaf07f8a)
  )
  (label "GND" (at 148.59 55.88 270)
    (effects (font (size 1.27 1.27)) (justify right bottom))
    (uuid 5b0bd90c-b918-4efc-aa67-1c88f83996db)
  )
  (label "VCC_O" (at 149.86 36.83 90)
    (effects (font (size 1.27 1.27)) (justify left bottom))
    (uuid 5fa9ab99-87b2-4b34-9699-59d8e11a545b)
  )
  (label "GND" (at 58.42 40.64 180)
    (effects (font (size 1.27 1.27)) (justify right bottom))
    (uuid 6fb78487-edf6-454e-9aba-b56a10878644)
  )
  (label "VCC_I" (at 104.14 55.88 0)
    (effects (font (size 1.27 1.27)) (justify left bottom))
    (uuid 7a15091b-6ce8-496f-a2b1-a29b40f16710)
  )
  (label "GND" (at 147.32 148.59 0)
    (effects (font (size 1.27 1.27)) (justify left bottom))
    (uuid 7da1f990-f0a4-4170-a3ea-cce0665e06ca)
  )
  (label "LI_ION+" (at 97.79 93.98 270)
    (effects (font (size 1.27 1.27)) (justify right bottom))
    (uuid 7da88303-e9ef-4973-9157-9aea99e3bd42)
  )
  (label "GND" (at 114.3 74.93 0)
    (effects (font (size 1.27 1.27)) (justify left bottom))
    (uuid 87153b66-7116-4c7c-b58b-0554ce23b773)
  )
  (label "VCC_I" (at 140.97 97.79 180)
    (effects (font (size 1.27 1.27)) (justify right bottom))
    (uuid 9508c709-8c39-4b08-b136-ef7962f9fcf2)
  )
  (label "GND" (at 39.37 40.64 90)
    (effects (font (size 1.27 1.27)) (justify left bottom))
    (uuid 96db1d6a-0fc5-48f4-831d-40a6d3381b42)
  )
  (label "LI_ION-" (at 146.05 158.75 0)
    (effects (font (size 1.27 1.27)) (justify left bottom))
    (uuid b468bd56-5e3d-405c-8c6c-5ad4d8b26ba4)
  )
  (label "VCC_I" (at 118.11 50.8 0)
    (effects (font (size 1.27 1.27)) (justify left bottom))
    (uuid b87a73c7-ac0c-4857-8364-f8bbf3204092)
  )
  (label "OD" (at 59.69 72.39 180)
    (effects (font (size 1.27 1.27)) (justify right bottom))
    (uuid b8ab7964-abf0-415b-8233-7de92c25a3df)
  )
  (label "LI_ION+" (at 140.97 80.01 180)
    (effects (font (size 1.27 1.27)) (justify right bottom))
    (uuid be3c1406-903e-4801-aae5-4b181527c042)
  )
  (label "VCC_O" (at 100.33 95.25 270)
    (effects (font (size 1.27 1.27)) (justify right bottom))
    (uuid d53bb985-7cf6-4a1d-b616-845f08bdb6ab)
  )
  (label "OC" (at 59.69 77.47 180)
    (effects (font (size 1.27 1.27)) (justify right bottom))
    (uuid d9c12c67-a9a7-4854-b004-08e9c5e85e9c)
  )
  (label "VCC_I" (at 147.32 140.97 0)
    (effects (font (size 1.27 1.27)) (justify left bottom))
    (uuid dd34bc86-7b7b-4a31-87c5-f2e3ca06fe54)
  )
  (label "OC" (at 73.66 110.49 90)
    (effects (font (size 1.27 1.27)) (justify left bottom))
    (uuid e55d13aa-0453-4acf-bd9b-5aa6c101467f)
  )
  (label "VCC_O" (at 104.14 40.64 0)
    (effects (font (size 1.27 1.27)) (justify left bottom))
    (uuid e95d9efc-ad48-483b-a5bc-372d6bb293dd)
  )
  (label "LI_ION+" (at 147.32 38.1 90)
    (effects (font (size 1.27 1.27)) (justify left bottom))
    (uuid fc8e5c05-6968-4d72-9a59-f35ce649905c)
  )

  (hierarchical_label "VCC_I" (shape input) (at 137.16 140.97 180)
    (effects (font (size 1.27 1.27)) (justify right))
    (uuid 0e5134ca-4f4c-4343-9bc0-afc74bde53cc)
  )
  (hierarchical_label "GND" (shape input) (at 137.16 148.59 180)
    (effects (font (size 1.27 1.27)) (justify right))
    (uuid 1684a802-b52a-4fc2-a05d-bd8c9d5cd7d2)
  )
  (hierarchical_label "VCC_O" (shape input) (at 137.16 144.78 180)
    (effects (font (size 1.27 1.27)) (justify right))
    (uuid 5931a1ac-fc82-4225-9869-cbcda0533080)
  )
  (hierarchical_label "LI_ION+" (shape input) (at 137.16 154.94 180)
    (effects (font (size 1.27 1.27)) (justify right))
    (uuid ca2f4858-8b4f-4b5b-b412-4816d9e563e4)
  )
  (hierarchical_label "LI_ION-" (shape input) (at 137.16 158.75 180)
    (effects (font (size 1.27 1.27)) (justify right))
    (uuid da6f76a3-364a-4389-8e35-85cdbf5bce0e)
  )

  (symbol (lib_id "Device:R") (at 63.5 45.72 90) (unit 1)
    (in_bom yes) (on_board yes)
    (uuid 0d5fe917-3d83-4aa8-9029-655ad5b04fd4)
    (property "Reference" "R1" (id 0) (at 63.5 45.72 90))
    (property "Value" "1.2k" (id 1) (at 63.5 48.26 90))
    (property "Footprint" "Resistor_SMD:R_0603_1608Metric" (id 2) (at 63.5 47.498 90)
      (effects (font (size 1.27 1.27)) hide)
    )
    (property "Datasheet" "~" (id 3) (at 63.5 45.72 0)
      (effects (font (size 1.27 1.27)) hide)
    )
    (pin "1" (uuid 12d10473-04ce-482d-bc5f-7523c82080c4))
    (pin "2" (uuid 08914b96-2eeb-4359-a84b-cf12c9cb4532))
  )

  (symbol (lib_id "FS8205A:FS8205A") (at 78.74 123.19 0) (unit 1)
    (in_bom yes) (on_board yes) (fields_autoplaced)
    (uuid 276912ef-3edf-4248-85fe-e76a46864e67)
    (property "Reference" "U?" (id 0) (at 92.71 114.0712 0))
    (property "Value" "FS8205A" (id 1) (at 92.71 116.6112 0))
    (property "Footprint" "Package_SO:TSSOP-8_4.4x3mm_P0.65mm" (id 2) (at 101.6 114.3 0)
      (effects (font (size 1.27 1.27)) hide)
    )
    (property "Datasheet" "" (id 3) (at 78.74 123.19 0)
      (effects (font (size 1.27 1.27)) hide)
    )
    (pin "1" (uuid 6cfa91f3-9ee2-4714-a656-49214211fa91))
    (pin "2" (uuid 961d9e04-8b4e-4c7e-82f0-6665ac3ae8de))
    (pin "3" (uuid b815f020-6dfd-42f7-95c0-ece8d9b57907))
    (pin "4" (uuid 8dae923e-5b50-41a8-8e11-6948233f7d81))
    (pin "5" (uuid 998af08c-1c54-4858-a8d0-db8b84d546df))
    (pin "6" (uuid 59da74b2-f409-4a73-b74d-febe25826b8e))
    (pin "7" (uuid ccebbca9-6c13-4f80-9df2-8a85e2d9970c))
    (pin "8" (uuid a5b41718-06f0-4aab-b2b2-3fcd25749cc4))
  )

  (symbol (lib_id "TC4056A:TC4056A") (at 81.28 48.26 0) (unit 1)
    (in_bom yes) (on_board yes) (fields_autoplaced)
    (uuid 367f5c85-bc3b-4816-a4b8-6bd82fd19a8a)
    (property "Reference" "U1" (id 0) (at 81.28 33.02 0))
    (property "Value" "TC4056A" (id 1) (at 81.28 35.56 0))
    (property "Footprint" "Package_SO:SOP-8_3.9x4.9mm_P1.27mm" (id 2) (at 82.55 60.96 0)
      (effects (font (size 1.27 1.27)) hide)
    )
    (property "Datasheet" "" (id 3) (at 81.28 48.26 0)
      (effects (font (size 1.27 1.27)) hide)
    )
    (pin "1" (uuid 828ec3a4-d6a2-4e43-b70e-ff8349d5fe24))
    (pin "2" (uuid a1b8bf3a-c254-4b50-a796-9f308348d6d3))
    (pin "3" (uuid 2a5f9eff-0374-471c-a427-41bbe10f38ae))
    (pin "4" (uuid 7b560c8d-ebdf-4cf8-a1dc-a090811ae7dd))
    (pin "5" (uuid 0dd349d7-9a78-4a44-bfcf-c5b0f4dd37aa))
    (pin "6" (uuid 500c4c99-0774-4d6e-8b6e-fa66241211ea))
    (pin "7" (uuid b094badf-8b8e-45c5-b230-36f661c92aed))
    (pin "8" (uuid c3a9adfa-4d89-4755-85b1-92b235530e3f))
  )

  (symbol (lib_id "Device:R") (at 100.33 50.8 90) (unit 1)
    (in_bom yes) (on_board yes)
    (uuid 38e0fb33-470a-44f3-b3e6-5129d72e03db)
    (property "Reference" "R5" (id 0) (at 100.33 50.8 90))
    (property "Value" "1.2k" (id 1) (at 100.33 53.34 90))
    (property "Footprint" "Resistor_SMD:R_0603_1608Metric" (id 2) (at 100.33 52.578 90)
      (effects (font (size 1.27 1.27)) hide)
    )
    (property "Datasheet" "~" (id 3) (at 100.33 50.8 0)
      (effects (font (size 1.27 1.27)) hide)
    )
    (pin "1" (uuid 99c39662-4a03-4839-9546-0612171d3fa4))
    (pin "2" (uuid 0a975da8-367b-42c8-8f54-7be9a93ff392))
  )

  (symbol (lib_id "Device:R") (at 100.33 45.72 90) (unit 1)
    (in_bom yes) (on_board yes)
    (uuid 3fa84938-69ca-44ad-aec8-49c6580b4880)
    (property "Reference" "R4" (id 0) (at 100.33 45.72 90))
    (property "Value" "1.2k" (id 1) (at 100.33 48.26 90))
    (property "Footprint" "Resistor_SMD:R_0603_1608Metric" (id 2) (at 100.33 47.498 90)
      (effects (font (size 1.27 1.27)) hide)
    )
    (property "Datasheet" "~" (id 3) (at 100.33 45.72 0)
      (effects (font (size 1.27 1.27)) hide)
    )
    (pin "1" (uuid 501e4305-4dc5-44f4-8bc4-67a0173997f5))
    (pin "2" (uuid 7f95470c-8302-4c13-ae66-cf649ff3f9f1))
  )

  (symbol (lib_id "Connector_Generic:Conn_01x02") (at 148.59 97.79 0) (mirror x) (unit 1)
    (in_bom yes) (on_board yes)
    (uuid 51a1ba4d-72f2-400d-910c-2f6a543026c9)
    (property "Reference" "J2" (id 0) (at 146.5072 89.535 0))
    (property "Value" "POW IN" (id 1) (at 146.5072 91.8464 0))
    (property "Footprint" "Connector_PinSocket_2.54mm:PinSocket_1x02_P2.54mm_Vertical" (id 2) (at 148.59 97.79 0)
      (effects (font (size 1.27 1.27)) hide)
    )
    (property "Datasheet" "~" (id 3) (at 148.59 97.79 0)
      (effects (font (size 1.27 1.27)) hide)
    )
    (pin "1" (uuid cdd34dab-1549-46bd-a920-4174a5823286))
    (pin "2" (uuid 5cedac5e-924e-4da3-aff8-813766ccc9b2))
  )

  (symbol (lib_id "Device:R") (at 68.58 74.93 90) (unit 1)
    (in_bom yes) (on_board yes)
    (uuid 5b0283c0-3e17-463b-b1d4-34f212fd80ab)
    (property "Reference" "R2" (id 0) (at 64.77 73.66 90)
      (effects (font (size 1.27 1.27)) (justify left))
    )
    (property "Value" "1k" (id 1) (at 69.85 74.93 90)
      (effects (font (size 1.27 1.27)) (justify left))
    )
    (property "Footprint" "Resistor_SMD:R_0603_1608Metric" (id 2) (at 68.58 76.708 90)
      (effects (font (size 1.27 1.27)) hide)
    )
    (property "Datasheet" "~" (id 3) (at 68.58 74.93 0)
      (effects (font (size 1.27 1.27)) hide)
    )
    (pin "1" (uuid a1994a83-1c8b-4498-a381-46fdbc404a72))
    (pin "2" (uuid fa75a0c4-6127-4f97-b458-c70e8189b9a6))
  )

  (symbol (lib_id "Device:LED") (at 110.49 45.72 0) (unit 1)
    (in_bom yes) (on_board yes)
    (uuid 62437946-e9b2-4167-9372-765e14341fee)
    (property "Reference" "D1" (id 0) (at 113.03 46.99 0))
    (property "Value" "LED" (id 1) (at 114.3 44.45 0))
    (property "Footprint" "LED_SMD:LED_0603_1608Metric" (id 2) (at 110.49 45.72 0)
      (effects (font (size 1.27 1.27)) hide)
    )
    (property "Datasheet" "~" (id 3) (at 110.49 45.72 0)
      (effects (font (size 1.27 1.27)) hide)
    )
    (pin "1" (uuid d1ab5cf5-8876-40c6-a3cc-dd137012ca41))
    (pin "2" (uuid d39b6b0e-e1f6-4b98-b8c6-d001f74ec929))
  )

  (symbol (lib_id "Device:C") (at 39.37 48.26 0) (unit 1)
    (in_bom yes) (on_board yes) (fields_autoplaced)
    (uuid 73fe06af-844c-422a-b433-f603cde4573f)
    (property "Reference" "C1" (id 0) (at 43.18 46.9899 0)
      (effects (font (size 1.27 1.27)) (justify left))
    )
    (property "Value" "100n" (id 1) (at 43.18 49.5299 0)
      (effects (font (size 1.27 1.27)) (justify left))
    )
    (property "Footprint" "" (id 2) (at 40.3352 52.07 0)
      (effects (font (size 1.27 1.27)) hide)
    )
    (property "Datasheet" "~" (id 3) (at 39.37 48.26 0)
      (effects (font (size 1.27 1.27)) hide)
    )
    (pin "1" (uuid 3102ab87-3019-4454-861c-653073caea27))
    (pin "2" (uuid f4381ac5-2ccf-4e81-9f77-6d5cf1a77190))
  )

  (symbol (lib_id "Device:LED") (at 110.49 50.8 0) (unit 1)
    (in_bom yes) (on_board yes)
    (uuid 763ba6b1-7db3-4897-b9bd-9d10d88c6747)
    (property "Reference" "D2" (id 0) (at 113.03 52.07 0))
    (property "Value" "LED" (id 1) (at 114.3 49.53 0))
    (property "Footprint" "LED_SMD:LED_0603_1608Metric" (id 2) (at 110.49 50.8 0)
      (effects (font (size 1.27 1.27)) hide)
    )
    (property "Datasheet" "~" (id 3) (at 110.49 50.8 0)
      (effects (font (size 1.27 1.27)) hide)
    )
    (pin "1" (uuid 703784b0-23ee-46db-905f-17ea0363835c))
    (pin "2" (uuid 7c2321ce-5768-42c7-b8ff-cf4e847b5d58))
  )

  (symbol (lib_id "Device:C") (at 106.68 74.93 270) (unit 1)
    (in_bom yes) (on_board yes) (fields_autoplaced)
    (uuid a2a1c521-4f0d-4384-a7f4-cc7bcfc6f1d0)
    (property "Reference" "C2" (id 0) (at 107.9501 78.74 0)
      (effects (font (size 1.27 1.27)) (justify left))
    )
    (property "Value" "100n" (id 1) (at 105.4101 78.74 0)
      (effects (font (size 1.27 1.27)) (justify left))
    )
    (property "Footprint" "" (id 2) (at 102.87 75.8952 0)
      (effects (font (size 1.27 1.27)) hide)
    )
    (property "Datasheet" "~" (id 3) (at 106.68 74.93 0)
      (effects (font (size 1.27 1.27)) hide)
    )
    (pin "1" (uuid e5e3bb6f-76cf-4177-9ab9-b5b2d2344df4))
    (pin "2" (uuid d3624c39-a059-462e-9cfa-6722dd90c568))
  )

  (symbol (lib_id "Transistor_FET:DMG3404L") (at 67.31 149.86 270) (mirror x) (unit 1)
    (in_bom yes) (on_board yes)
    (uuid a949db80-c43b-4292-86f1-e788a4fcd5be)
    (property "Reference" "Q2" (id 0) (at 68.4784 144.6784 0)
      (effects (font (size 1.27 1.27)) (justify left))
    )
    (property "Value" "AO3400" (id 1) (at 66.167 144.6784 0)
      (effects (font (size 1.27 1.27)) (justify left))
    )
    (property "Footprint" "Package_TO_SOT_SMD:SOT-23" (id 2) (at 65.405 144.78 0)
      (effects (font (size 1.27 1.27) italic) (justify left) hide)
    )
    (property "Datasheet" "http://www.diodes.com/assets/Datasheets/DMG3404L.pdf" (id 3) (at 67.31 149.86 0)
      (effects (font (size 1.27 1.27)) (justify left) hide)
    )
    (pin "1" (uuid 3d146213-ee13-4f31-bfa3-54560171ec2d))
    (pin "2" (uuid 4b596c76-6eaf-481e-8123-0fbefb929d5f))
    (pin "3" (uuid 263b8704-1601-48bf-a174-9948dc690e63))
  )

  (symbol (lib_id "Connector_Generic:Conn_01x02") (at 148.59 116.84 0) (mirror x) (unit 1)
    (in_bom yes) (on_board yes)
    (uuid d63c0bed-7b25-4b1b-9ea7-3fefeb04dbb7)
    (property "Reference" "J3" (id 0) (at 146.5072 108.585 0))
    (property "Value" "POW OUT" (id 1) (at 146.5072 110.8964 0))
    (property "Footprint" "Connector_PinSocket_2.54mm:PinSocket_1x02_P2.54mm_Vertical" (id 2) (at 148.59 116.84 0)
      (effects (font (size 1.27 1.27)) hide)
    )
    (property "Datasheet" "~" (id 3) (at 148.59 116.84 0)
      (effects (font (size 1.27 1.27)) hide)
    )
    (pin "1" (uuid 05ec2f70-9519-4b5f-8541-4cecb4e5b32d))
    (pin "2" (uuid edf05973-7067-4a95-b0b7-c2a7af91f9de))
  )

  (symbol (lib_id "Device:C") (at 148.59 48.26 180) (unit 1)
    (in_bom yes) (on_board yes) (fields_autoplaced)
    (uuid d8a79e71-170f-422e-8428-71c48aa09008)
    (property "Reference" "C3" (id 0) (at 152.4 46.9899 0)
      (effects (font (size 1.27 1.27)) (justify right))
    )
    (property "Value" "10u" (id 1) (at 152.4 49.5299 0)
      (effects (font (size 1.27 1.27)) (justify right))
    )
    (property "Footprint" "" (id 2) (at 147.6248 44.45 0)
      (effects (font (size 1.27 1.27)) hide)
    )
    (property "Datasheet" "~" (id 3) (at 148.59 48.26 0)
      (effects (font (size 1.27 1.27)) hide)
    )
    (pin "1" (uuid a125d012-94cc-4edc-a261-f90d9e50b9dc))
    (pin "2" (uuid b0146869-e293-41ce-b7d5-2984f7f6f1a3))
  )

  (symbol (lib_id "Connector_Generic:Conn_01x02") (at 148.59 80.01 0) (mirror x) (unit 1)
    (in_bom yes) (on_board yes)
    (uuid dc5e94a4-26f8-4125-a5e1-085ff7f9fc9d)
    (property "Reference" "J1" (id 0) (at 146.5072 71.755 0))
    (property "Value" "BAT" (id 1) (at 146.5072 74.0664 0))
    (property "Footprint" "Connector_PinSocket_2.54mm:PinSocket_1x02_P2.54mm_Vertical" (id 2) (at 148.59 80.01 0)
      (effects (font (size 1.27 1.27)) hide)
    )
    (property "Datasheet" "~" (id 3) (at 148.59 80.01 0)
      (effects (font (size 1.27 1.27)) hide)
    )
    (pin "1" (uuid 180a2e0c-f864-4f70-9d2c-45ea0cd3d7b5))
    (pin "2" (uuid 52df67f5-fcd6-4369-a448-c686a46a5b11))
  )

  (symbol (lib_id "Transistor_FET:DMG3404L") (at 87.63 149.86 90) (unit 1)
    (in_bom yes) (on_board yes)
    (uuid e05ac302-7497-48c7-b34a-cf82ad844186)
    (property "Reference" "Q1" (id 0) (at 86.4616 144.6784 0)
      (effects (font (size 1.27 1.27)) (justify left))
    )
    (property "Value" "AO3400" (id 1) (at 88.773 144.6784 0)
      (effects (font (size 1.27 1.27)) (justify left))
    )
    (property "Footprint" "Package_TO_SOT_SMD:SOT-23" (id 2) (at 89.535 144.78 0)
      (effects (font (size 1.27 1.27) italic) (justify left) hide)
    )
    (property "Datasheet" "http://www.diodes.com/assets/Datasheets/DMG3404L.pdf" (id 3) (at 87.63 149.86 0)
      (effects (font (size 1.27 1.27)) (justify left) hide)
    )
    (pin "1" (uuid 4cf1b84a-9480-49fa-9ec4-9f40cbb579f7))
    (pin "2" (uuid 3035d26f-2c5f-41d7-825a-6e3f7fc130b8))
    (pin "3" (uuid e614f837-8a9b-47d8-b9f6-fddfdf5293c4))
  )

  (symbol (lib_id "Device:R") (at 99.06 83.82 0) (unit 1)
    (in_bom yes) (on_board yes)
    (uuid e9bb20a6-1ae3-4931-9d90-80abbf5ed7f8)
    (property "Reference" "R3" (id 0) (at 101.6 85.09 90)
      (effects (font (size 1.27 1.27)) (justify left))
    )
    (property "Value" "100" (id 1) (at 96.52 85.09 90)
      (effects (font (size 1.27 1.27)) (justify left))
    )
    (property "Footprint" "Resistor_SMD:R_0603_1608Metric" (id 2) (at 97.282 83.82 90)
      (effects (font (size 1.27 1.27)) hide)
    )
    (property "Datasheet" "~" (id 3) (at 99.06 83.82 0)
      (effects (font (size 1.27 1.27)) hide)
    )
    (pin "1" (uuid 5f091327-9459-4983-b996-37de8df7570b))
    (pin "2" (uuid 8c7ac1bc-d6e8-4c6a-80e5-6ee33e252032))
  )

  (symbol (lib_id "DW01x:DW01x-LION_Baterry_Management") (at 81.28 74.93 270) (unit 1)
    (in_bom yes) (on_board yes)
    (uuid f5cbe0c4-1b13-4b22-a248-3219ef6b5c0c)
    (property "Reference" "U2" (id 0) (at 80.01 81.28 90)
      (effects (font (size 1.27 1.27)) (justify left))
    )
    (property "Value" "DW01x-LION_Baterry_Management" (id 1) (at 67.31 68.58 90)
      (effects (font (size 1.27 1.27)) (justify left))
    )
    (property "Footprint" "Package_TO_SOT_SMD:SOT-23-6" (id 2) (at 81.28 74.93 0)
      (effects (font (size 1.27 1.27)) hide)
    )
    (property "Datasheet" "" (id 3) (at 81.28 74.93 0)
      (effects (font (size 1.27 1.27)) hide)
    )
    (pin "1" (uuid 3a3d8447-53fc-43c6-ba8d-7ed9710f404a))
    (pin "2" (uuid bbad9fc0-d0ef-4c3a-b0ce-5fcfb2abaf2c))
    (pin "3" (uuid f4dd418f-bd50-42a0-9868-a13288025105))
    (pin "4" (uuid a6d7f596-c748-41c0-8a0b-2539eb1c9025))
    (pin "5" (uuid 15e8a5d8-b9ef-4b8a-943b-3e40537d63df))
    (pin "6" (uuid d0e5fff9-08a0-459b-87df-8953353c3ee6))
  )

  (sheet_instances
    (path "/" (page "1"))
  )

  (symbol_instances
    (path "/73fe06af-844c-422a-b433-f603cde4573f"
      (reference "C1") (unit 1) (value "100n") (footprint "")
    )
    (path "/a2a1c521-4f0d-4384-a7f4-cc7bcfc6f1d0"
      (reference "C2") (unit 1) (value "100n") (footprint "")
    )
    (path "/d8a79e71-170f-422e-8428-71c48aa09008"
      (reference "C3") (unit 1) (value "10u") (footprint "")
    )
    (path "/62437946-e9b2-4167-9372-765e14341fee"
      (reference "D1") (unit 1) (value "LED") (footprint "LED_SMD:LED_0603_1608Metric")
    )
    (path "/763ba6b1-7db3-4897-b9bd-9d10d88c6747"
      (reference "D2") (unit 1) (value "LED") (footprint "LED_SMD:LED_0603_1608Metric")
    )
    (path "/dc5e94a4-26f8-4125-a5e1-085ff7f9fc9d"
      (reference "J1") (unit 1) (value "BAT") (footprint "Connector_PinSocket_2.54mm:PinSocket_1x02_P2.54mm_Vertical")
    )
    (path "/51a1ba4d-72f2-400d-910c-2f6a543026c9"
      (reference "J2") (unit 1) (value "POW IN") (footprint "Connector_PinSocket_2.54mm:PinSocket_1x02_P2.54mm_Vertical")
    )
    (path "/d63c0bed-7b25-4b1b-9ea7-3fefeb04dbb7"
      (reference "J3") (unit 1) (value "POW OUT") (footprint "Connector_PinSocket_2.54mm:PinSocket_1x02_P2.54mm_Vertical")
    )
    (path "/e05ac302-7497-48c7-b34a-cf82ad844186"
      (reference "Q1") (unit 1) (value "AO3400") (footprint "Package_TO_SOT_SMD:SOT-23")
    )
    (path "/a949db80-c43b-4292-86f1-e788a4fcd5be"
      (reference "Q2") (unit 1) (value "AO3400") (footprint "Package_TO_SOT_SMD:SOT-23")
    )
    (path "/0d5fe917-3d83-4aa8-9029-655ad5b04fd4"
      (reference "R1") (unit 1) (value "1.2k") (footprint "Resistor_SMD:R_0603_1608Metric")
    )
    (path "/5b0283c0-3e17-463b-b1d4-34f212fd80ab"
      (reference "R2") (unit 1) (value "1k") (footprint "Resistor_SMD:R_0603_1608Metric")
    )
    (path "/e9bb20a6-1ae3-4931-9d90-80abbf5ed7f8"
      (reference "R3") (unit 1) (value "100") (footprint "Resistor_SMD:R_0603_1608Metric")
    )
    (path "/3fa84938-69ca-44ad-aec8-49c6580b4880"
      (reference "R4") (unit 1) (value "1.2k") (footprint "Resistor_SMD:R_0603_1608Metric")
    )
    (path "/38e0fb33-470a-44f3-b3e6-5129d72e03db"
      (reference "R5") (unit 1) (value "1.2k") (footprint "Resistor_SMD:R_0603_1608Metric")
    )
    (path "/367f5c85-bc3b-4816-a4b8-6bd82fd19a8a"
      (reference "U1") (unit 1) (value "TC4056A") (footprint "Package_SO:SOP-8_3.9x4.9mm_P1.27mm")
    )
    (path "/f5cbe0c4-1b13-4b22-a248-3219ef6b5c0c"
      (reference "U2") (unit 1) (value "DW01x-LION_Baterry_Management") (footprint "Package_TO_SOT_SMD:SOT-23-6")
    )
    (path "/276912ef-3edf-4248-85fe-e76a46864e67"
      (reference "U?") (unit 1) (value "FS8205A") (footprint "Package_SO:TSSOP-8_4.4x3mm_P0.65mm")
    )
  )
)
